{
    "sender": "ProductionSystemsSupport@tracfone.com",
    "dest": ["ProductionSystemsSupport@tracfone.com"],
    "subject": "Handle Process application - CBO - ERROR!",
    "type": "plain",
    "high": true,
    "body": "Error occurred while starting CBO servers.\n\nPlease take care of this as soon as possible: there may be an important process in course, which might be dependant of this operation."
}